,Full Match,ID
0,Tribunale ROMA 23 febbraio 2020,"Tribunale Roma, 23/02/2020"
1,CDA n. 418_2020 (Saronno Lega Nord),"Corte di Appello Milano,  06/02/2020, n. 4182020"
2, Tribunale civile di Varese 27_07_2022,"Tribunale Varese, 27/07/2022"
3,"Cass., Sez. III, 7_05_2008 n. 37581","Cassazione sez. III, 07/05/2008, n. 37581"
4,"Corte appello Torino sez. III, 14_12_2020, n. 1236","Corte di Appello Torino sez. III, 14/12/2020, n. 1236"
5,"Cassazione penale sez. V - 07_05_2019, n. 32862","Cassazione penale sez. V, 07/05/2019, n. 32862"
6,"Cassazione penale sez. I - 06_12_2021, n. 4534","Cassazione penale sez. I, 06/12/2021, n. 4534"
7,"Cassazione penale sez. I, 27_03_2019, (ud. 27_03_2019, dep. 16_05_2019), n.21409","Cassazione penale sez. I, 27/03/2019, n. 21409"
8,"Cassazione penale sez. I - 19_11_2021, n. 3808","Cassazione penale sez. I, 19/11/2021, n. 3808"
9,"Cassazione penale sez. I - 13_03_2012, n. 20508","Cassazione penale sez. I, 13/03/2012, n. 20508"
11,"Corte di Cassazione, sez. I Penale, sentenza 22 maggio – 23 ottobre 2015, n. 42727","Cassazione Penale sez. I, dal 22/05/2015 al 23/10/2015, n. 42727"
12,"Cassazione penale sez. I, 22_11_2012, (ud. 22_11_2012, dep. 11_12_2012), n.47894","Cassazione penale sez. I, 22/11/2012, n.47894"
13,"Cassazione penale sez. III, 24_04_2013, (ud. 24_04_2013, dep. 31_07_2013), n.33179","Cassazione penale sez. III, 24/04/2013, n.33179"
14,"Cassazione penale sez. III - 24_04_2013, n. 33179","Cassazione penale sez. III, 24/04/2013, n. 33179"
15,"Cassazione penale sez. III, 04_05_2017, (ud. 04_05_2017, dep. 04_07_2017), n.31975","Cassazione penale sez. III, 04/05/2017, n. 31975"
16,"Cassazione penale sez. V, 02_11_2017, (ud. 02_11_2017, dep. 19_02_2018), n.7859","Cassazione penale sez. V, 02/11/2017, n. 7859"
17,"Cassazione penale sez. V, 15_05_2013, (ud. 15_05_2013, dep. 12_06_2013), n.25870","Cassazione penale sez. V, 15/05/2013, n. 25870"
18,"Nota a Cassazione penale sez. I, 06_12_2021, n. 4534","Cassazione penale sez. I, 0 (nota) 6/12/2021, n. 4534"
20,"Tribunale sez. uff. indagini prel. - La Spezia, 05_10_2018","Tribunale La Spezia, 05/10/2018"
