[0.0, 0.0, 135.0158600746025],
[0.0, 1.0, 150.9385765520472],
[0.0, 2.0, 122.4355243357758],
[0.0, 3.0, 200.69967422174068],
[0.0, 4.0, 94.00011346421437],
[0.0, 5.0, 204.71989037757453],
[0.0, 6.0, 154.61250752768782],
[0.0, 7.0, 238.76028635721744],
[0.0, 8.0, 494.59751321833255],
[0.0, 9.0, 76.94430585718479],
[0.0, 10.0, 178.81536153389555],
[0.0, 11.0, 556.2455219889789],
[0.0, 12.0, 204.43796063527657],
[0.0, 13.0, 157.527343133284],
[0.0, 14.0, 146.55888364409967],
[0.0, 15.0, 272.2321815648737],
[0.0, 16.0, 218.0046466434405],
[0.0, 17.0, 126.36833637327076],
[1.0, 1.0, 248.2025792872679],
[1.0, 2.0, 228.04717118085568],
[1.0, 3.0, 242.51241500560403],
[1.0, 4.0, 162.5890323520806],
[1.0, 5.0, 260.33612072858153],
[1.0, 6.0, 186.87530239154583],
[1.0, 7.0, 315.1410084169845],
[1.0, 8.0, 570.8659660673226],
[1.0, 9.0, 188.7808339308715],
[1.0, 10.0, 225.1785499418189],
[1.0, 11.0, 641.7103212032935],
[1.0, 12.0, 309.64209035069695],
[1.0, 13.0, 288.8164211494988],
[1.0, 14.0, 127.2015091195314],
[1.0, 15.0, 301.73313546617453],
[1.0, 16.0, 325.3921208737623],
[1.0, 17.0, 172.94679330483493],
[2.0, 2.0, 56.31531541729354],
[2.0, 3.0, 293.32715696841177],
[2.0, 4.0, 100.0201942798461],
[2.0, 5.0, 272.3337824629408],
[2.0, 6.0, 105.63996828244738],
[2.0, 7.0, 92.42856903345722],
[2.0, 8.0, 526.7067328048489],
[2.0, 9.0, 184.32345652980916],
[2.0, 10.0, 145.71385245312248],
[2.0, 11.0, 452.39178742853807],
[2.0, 12.0, 109.75139743799768],
[2.0, 13.0, 129.14103205909373],
[2.0, 14.0, 295.7701077244868],
[2.0, 15.0, 333.53201319509543],
[2.0, 16.0, 133.88526605741166],
[2.0, 17.0, 253.38448101131823],
[3.0, 3.0, 238.2714467405361],
[3.0, 4.0, 72.32166744117896],
[3.0, 5.0, 216.13790721462584],
[3.0, 6.0, 117.74809813065836],
[3.0, 7.0, 134.36290231540352],
[3.0, 8.0, 540.3949595789472],
[3.0, 9.0, 139.94986263449402],
[3.0, 10.0, 113.87730377385616],
[3.0, 11.0, 443.17560659922685],
[3.0, 12.0, 152.18636160003655],
[3.0, 13.0, 100.53462058189392],
[3.0, 14.0, 260.0126922893857],
[3.0, 15.0, 278.5047135386905],
[3.0, 16.0, 108.24630775041014],
[3.0, 17.0, 238.15159572037933],
[4.0, 4.0, 221.79011952376004],
[4.0, 5.0, 47.72973242409712],
[4.0, 6.0, 296.58320148470955],
[4.0, 7.0, 364.6503427170924],
[4.0, 8.0, 630.0773699117075],
[4.0, 9.0, 147.3052871929421],
[4.0, 10.0, 223.26487679952763],
[4.0, 11.0, 529.0965871920762],
[4.0, 12.0, 370.92082410817],
[4.0, 13.0, 237.4724323041592],
[4.0, 14.0, 179.132809020863],
[4.0, 15.0, 94.720650710003],
[4.0, 16.0, 260.03641229764145],
[4.0, 17.0, 269.3809117175222],
[5.0, 5.0, 208.75156516724016],
[5.0, 6.0, 78.84575058345345],
[5.0, 7.0, 167.7580537436852],
[5.0, 8.0, 563.1978078993933],
[5.0, 9.0, 137.0987685037571],
[5.0, 10.0, 94.40868396386485],
[5.0, 11.0, 489.312678059734],
[5.0, 12.0, 195.27471155982477],
[5.0, 13.0, 160.9041585395793],
[5.0, 14.0, 217.0469307809824],
[5.0, 15.0, 263.8106053471041],
[5.0, 16.0, 169.0266942227338],
[5.0, 17.0, 216.82079379270309],
[6.0, 6.0, 282.53424917764704],
[6.0, 7.0, 336.970337205039],
[6.0, 8.0, 641.2000224090216],
[6.0, 9.0, 151.08601345094874],
[6.0, 10.0, 195.5797444490908],
[6.0, 11.0, 481.3879840758157],
[6.0, 12.0, 355.04326124362143],
[6.0, 13.0, 215.50992790263248],
[6.0, 14.0, 214.19677464331056],
[6.0, 15.0, 78.68563435628872],
[6.0, 16.0, 222.39580856869927],
[6.0, 17.0, 290.2033891096459],
[7.0, 7.0, 135.00025752123105],
[7.0, 8.0, 584.4250279465723],
[7.0, 9.0, 212.10648908414296],
[7.0, 10.0, 122.02031731390028],
[7.0, 11.0, 500.3009778478678],
[7.0, 12.0, 191.93979977091135],
[7.0, 13.0, 215.6948657303489],
[7.0, 14.0, 274.18256085608624],
[7.0, 15.0, 329.7799087129635],
[7.0, 16.0, 206.49618926489396],
[7.0, 17.0, 259.8701562522851],
[8.0, 8.0, 587.4787643058163],
[8.0, 9.0, 272.8530542030126],
[8.0, 10.0, 172.57939295287505],
[8.0, 11.0, 410.32109061955975],
[8.0, 12.0, 148.59365141277232],
[8.0, 13.0, 201.570726615771],
[8.0, 14.0, 379.9534496231468],
[8.0, 15.0, 387.2960673587977],
[8.0, 16.0, 159.41430786153305],
[8.0, 17.0, 341.51341020916044],
[9.0, 9.0, 501.232009222382],
[9.0, 10.0, 648.4307485926961],
[9.0, 11.0, 889.0594708177134],
[9.0, 12.0, 439.1510739126226],
[9.0, 13.0, 491.33925891807104],
[9.0, 14.0, 536.2143885995575],
[9.0, 15.0, 718.3498833227386],
[9.0, 16.0, 593.1148549760021],
[9.0, 17.0, 407.4968564423136],
[10.0, 10.0, 194.56443588277028],
[10.0, 11.0, 534.1050989935587],
[10.0, 12.0, 236.96296569816124],
[10.0, 13.0, 131.56826770274782],
[10.0, 14.0, 148.4941142880157],
[10.0, 15.0, 226.71581211965648],
[10.0, 16.0, 202.3673895210547],
[10.0, 17.0, 152.80993026237425],
[11.0, 11.0, 419.2955103817402],
[11.0, 12.0, 255.28305229121],
[11.0, 13.0, 196.48055740241887],
[11.0, 14.0, 276.6198369823174],
[11.0, 15.0, 229.18466258652688],
[11.0, 16.0, 147.99924553504576],
[11.0, 17.0, 304.68377282546953],
[12.0, 12.0, 506.7795676785009],
[12.0, 13.0, 441.9980378353221],
[12.0, 14.0, 661.6028056384138],
[12.0, 15.0, 484.88416230183685],
[12.0, 16.0, 343.0114777518061],
[12.0, 17.0, 671.294453941202],
[13.0, 13.0, 162.60131393743472],
[13.0, 14.0, 346.1396549333277],
[13.0, 15.0, 424.5979752500306],
[13.0, 16.0, 206.20693392297667],
[13.0, 17.0, 259.2322277846115],
[14.0, 14.0, 278.3491164008605],
[14.0, 15.0, 288.0606510816305],
[14.0, 16.0, 110.39037073528388],
[14.0, 17.0, 240.6431455871621],
[15.0, 15.0, 262.1346485540684],
[15.0, 16.0, 339.4950664501372],
[15.0, 17.0, 137.9749151492546],
[16.0, 16.0, 274.6337111214636],
[16.0, 17.0, 358.013154369231],
[17.0, 17.0, 328.9475370290171],
