"Term as String","Mean(TF-IDF)"
"filtr",0.02476
"portal",0.02466
"compagn",0.01816
"satir",0.01559
"amichevol",0.01455
"squadr",0.01455
"cristin",0.01388
"troian",0.01388
"dare",0.01375
"entrar",0.01375
"pollic",0.01375
"class",0.01362
"niger",0.01362
"scherz",0.01362
"vaccin",0.01309
"piac",0.01303
"cornic",0.01269
"manual",0.01269
"scegl",0.01238
"ester",0.01194
"inserzion",0.01064
"credent",0.01058
"islam",0.01058
"risp",0.01044
"blog",0.00998
"alli",0.00908
"confid",0.00908
"discend",0.00908
"docc",0.00908
"fissazion",0.00908
"putat",0.00908
"spogliato",0.00908
"spogliatoi",0.00908
"sput",0.00908
"opin",0.00893
"borg",0.00892
"ment",0.00892
"panoram",0.00881
"torne",0.00873
"lik",0.00837
"acquist",0.00835
"scaric",0.00835
"disinform",0.00818
"cristian",0.00803
"stupr",0.00786
"sal",0.0076
"fidanz",0.00749
"sit",0.00742
"disattiv",0.0074
"riqualif",0.00733
"for",0.00731
"revision",0.0072
"rabbin",0.00706
"shoah",0.00683
"ebraic",0.00681
"aguzzin",0.0067
"assassin",0.0067
"canagl",0.0067
"protest",0.00669
"civilizz",0.00658
"sportiv",0.0065
"clandestin",0.00639
"community",0.00636
"audiovis",0.00634
"popolar",0.00627
"afric",0.00627
"biometr",0.00627
"master",0.00627
"sant",0.00624
"cop",0.0061
"professor",0.00609
"comment",0.00608
"distrazion",0.00604
"olocaust",0.00593
"calc",0.0059
"cor",0.00582
"decis",0.00582
"gar",0.00582
"fluid",0.00581
"jihad",0.00581
"potenz",0.00581
"terrorist",0.00581
"riassunt",0.0058
"propagand",0.00578
"cas",0.00577
"negazion",0.00574
"omosessual",0.00573
"rivendic",0.00573
"squilibr",0.00573
"invi",0.00572
"stranier",0.00566
"rilanc",0.00555
"genocid",0.00542
"razzial",0.00536
"includ",0.00532
"dol",0.00529
"macell",0.00529
"soffert",0.00529
"soffr",0.00529
"stil",0.00524
"stermin",0.00522
"esoner",0.0052
"discrimin",0.00519
"fascist",0.00515
"pinocc",0.00514
"scolast",0.00508
"dur",0.00491
"pandem",0.00491
"neonaz",0.0049
"elog",0.00486
"convers",0.00479
"carc",0.00478
"sodaliz",0.00478
"zingar",0.00466
"domand",0.00465
"scimm",0.00465
"diritt",0.0046
"giovan",0.00459
"addoss",0.00454
"assorbent",0.00454
"confident",0.00454
"ferru",0.00454
"inattend",0.00454
"inattendibil",0.00454
"irragionevol",0.00454
"mil",0.00454
"minorenn",0.00454
"rubinett",0.00454
"schern",0.00454
"sfond",0.00454
"testual",0.00454
"antisem",0.0045
"algoritm",0.00449
"utent",0.00448
"attorn",0.00446
"evangel",0.00446
"fog",0.00446
"infel",0.00446
"pigr",0.00446
"superficial",0.00446
"vanit",0.00446
"piattaform",0.00446
"ripres",0.00442
"dedizion",0.00441
"emittent",0.00441
"inve",0.00441
"lamentin",0.00441
"riottos",0.00441
"sostanziatas",0.00441
"sovranazional",0.00441
"nomad",0.00438
"mot",0.00433
"fier",0.00426
"bracc",0.00423
"coesion",0.00423
"emblemat",0.00423
"ermeneut",0.00423
"pecul",0.00423
"salut",0.00423
"verosimigl",0.00423
"fior",0.00422
"sciogl",0.00421
"accad",0.00419
"acces",0.00418
"banc",0.00418
"dispar",0.00418
"ebook",0.00418
"podcast",0.00418
"com",0.00417
"vis",0.00416
"delinqu",0.00414
"facebook",0.00412
"opposizion",0.0041
"fed",0.00409
"odi",0.00406
"negr",0.00405
"nuov",0.00402
"post",0.00401
"guid",0.00397
"informat",0.00395
"preg",0.00391
"guerr",0.00387
"pubblicizz",0.00387
"struttur",0.0038
"istig",0.00377
"propagandist",0.00375
"storic",0.00373
"inform",0.00373
"conviv",0.00373
"sintomat",0.00373
"etnic",0.00371
"direttor",0.00366
"razzist",0.00362
"calcist",0.0036
"crimin",0.00359
"civilt",0.00357
"masson",0.00357
"meticc",0.00357
"sion",0.00357
"supremazion",0.00357
"gest",0.00354
"social",0.00354
"pubblic",0.00353
"crudelt",0.00353
"dolor",0.00353
"giustiz",0.00353
"indiscut",0.00353
"levit",0.00353
"maledett",0.00353
"mattato",0.00353
"sofferent",0.00353
"alto",0.00352
"sessual",0.00348
"nazist",0.00347
"certezz",0.00346
"fotograf",0.00345
"facc",0.00345
"news",0.00342
"ebre",0.00342
"virtual",0.00341
"critic",0.00341
"molest",0.0034
"pretend",0.0034
"frutt",0.00336
"percezion",0.00335
"assoc",0.00333
"connazional",0.00333
"perimetr",0.00333
"rub",0.00333
"animal",0.00331
"abbracc",0.00329
"amator",0.00329
"animalesc",0.00329
"dissens",0.00329
"estromess",0.00329
"fraintes",0.00329
"fum",0.00329
"habitat",0.00329
"idiomat",0.00329
"infam",0.00329
"interloqu",0.00329
"lev",0.00329
"malcontent",0.00329
"malumor",0.00329
"mediat",0.00329
"orang",0.00329
"paragon",0.00329
"radical",0.00329
"sarcast",0.00329
"sguai",0.00329
"somigl",0.00329
"spaz",0.00329
"tort",0.00329
"trasmodin",0.00329
"uscit",0.00329
"costum",0.00327
"fru",0.00327
"accezion",0.00327
"manifest",0.00327
"avversion",0.00324
"bambin",0.00323
"civil",0.00323
"deport",0.00317
"natural",0.00316
"filosof",0.00315
"network",0.00314
"inutil",0.00313
"ostil",0.00312
"depotenz",0.00312
"dissacr",0.00312
"interferent",0.00312
"covid",0.0031
"mostr",0.0031
"disegn",0.00309
"ide",0.00308
"merd",0.00307
"esterior",0.00306
"reput",0.00303
"luog",0.00301
"cam",0.00301
"condivis",0.00298
"trasmission",0.00297
"avversar",0.00297
"violenz",0.00296
"dimission",0.00294
"bibliotec",0.00292
"appassion",0.00291
"campion",0.00291
"difficolt",0.00291
"essern",0.00291
"estemporane",0.00291
"fedel",0.00291
"fratern",0.00291
"gemellagg",0.00291
"pompe",0.00291
"punizion",0.00291
"servent",0.00291
"sost",0.00291
"sostenitr",0.00291
"temporal",0.00291
"tifos",0.00291
"tifoser",0.00291
"trasport",0.00291
"unir",0.00291
"ades",0.0029
"apologet",0.0029
"fannullon",0.0029
"martir",0.0029
"poc",0.0029
"tast",0.0029
"furt",0.00289
"giungl",0.00285
"whatsapp",0.00284
"comm",0.00284
"libert",0.00282
"assorb",0.00282
"sicurezz",0.00281
"internet",0.0028
"proselit",0.00279
"discriminator",0.00279
"resistent",0.00278
"contrassegn",0.00278
"mer",0.00277
"deput",0.00277
"europe",0.00274
"formazion",0.00272
"sint",0.00272
"societ",0.00271
"man",0.0027
"chies",0.00268
"incit",0.00267
"organizz",0.00266
"margin",0.00265
"buon",0.00264
"essers",0.00264
"stigmatizz",0.00263
"cad",0.00263
"esult",0.00263
"ret",0.00261
"denigrator",0.00259
"genitor",0.00259
"emul",0.00257
"fascism",0.00256
"disc",0.00256
"relig",0.00256
"blocc",0.00255
"polit",0.00254
"uffic",0.00253
"razz",0.00253
"arrest",0.00252
"generazional",0.00251
"not",0.0025
"advers",0.0025
"autric",0.0025
"brutt",0.0025
"extracontrattual",0.0025
"festegg",0.0025
"hashtag",0.0025
"linguist",0.0025
"suol",0.0025
"zecc",0.0025
"teor",0.00247
"account",0.00247
"sostenitor",0.00246
"fak",0.00246
"giornalier",0.00246
"imminent",0.00246
"nud",0.00246
"policy",0.00246
"sperimental",0.00246
"cartell",0.00245
"espression",0.00245
"cont",0.00244
"facolt",0.00242
"grad",0.00241
"rivist",0.00241
"diffusion",0.00241
"serviz",0.0024
"african",0.0024
"abitual",0.0024
"comport",0.00239
"incolum",0.00239
"cens",0.00239
"classic",0.00239
"communities",0.00239
"dir",0.00239
"edott",0.00239
"espans",0.00239
"fil",0.00239
"ideazion",0.00239
"mascher",0.00239
"moder",0.00239
"ombra",0.00239
"prognos",0.00239
"pseudonim",0.00239
"sarann",0.00239
"scamb",0.00239
"server",0.00239
"sfaccettatur",0.00239
"vantazion",0.00239
"visit",0.00239
"volantinagg",0.00239
"indott",0.00237
"aggression",0.00237
"bast",0.00236
"antisemit",0.00236
"estern",0.00234
"rimuov",0.00234
"attes",0.00233
"donn",0.00232
"conosc",0.00232
"pregiudiz",0.00231
"direzion",0.00231
"programm",0.0023
"commemor",0.0023
"scritt",0.0023
"frazion",0.0023
"simbol",0.00229
"futur",0.00229
"inferior",0.00229
"giust",0.00229
"sacrific",0.00228
"asil",0.00228
"azi",0.00228
"volantin",0.00227
"comun",0.00227
"tecnolog",0.00226
"contest",0.00226
"ital",0.00225
"sanitar",0.00225
"andav",0.00224
"accattonagg",0.00223
"antagon",0.00223
"apertur",0.00223
"censor",0.00223
"dispett",0.00223
"filipp",0.00223
"furor",0.00223
"gett",0.00223
"infanz",0.00223
"insolenz",0.00223
"lamentel",0.00223
"magl",0.00223
"malvezz",0.00223
"manifestin",0.00223
"mar",0.00223
"mens",0.00223
"mittent",0.00223
"nostr",0.00223
"notevol",0.00223
"oltranz",0.00223
"persegu",0.00223
"pigriz",0.00223
"pos",0.00223
"postal",0.00223
"pulp",0.00223
"salvezz",0.00223
"sass",0.00223
"sci",0.00223
"sedicent",0.00223
"sforz",0.00223
"sofferm",0.00223
"stenograf",0.00223
"tassell",0.00223
"pensier",0.00223
"uom",0.00223
"corrent",0.00222
"forum",0.00221
"profession",0.00221
"inesistent",0.00221
"riqualific",0.00221
"delitt",0.0022
"volontar",0.00219
"fec",0.00219
"caus",0.00218
"lesion",0.00218
"event",0.00217
"camer",0.00217
"firm",0.00216
"guard",0.00216
"attiv",0.00216
"dann",0.00215
"docent",0.00215
"onlin",0.00215
"intoller",0.00214
"auschwitz",0.00214
"intern",0.00213
"immobil",0.00213
"respons",0.00213
"dispiac",0.00213
"dilegg",0.00213
"diviet",0.00213
"chiav",0.00212
"ben",0.00212
"sostitu",0.00212
"abbond",0.00211
"alter",0.00211
"alzar",0.00211
"alzars",0.00211
"ambiental",0.00211
"apoditt",0.00211
"apparent",0.00211
"bass",0.00211
"cellul",0.00211
"concit",0.00211
"contrapporl",0.00211
"contrapposizion",0.00211
"desist",0.00211
"destitu",0.00211
"fiordalis",0.00211
"fug",0.00211
"gogl",0.00211
"inerz",0.00211
"ingiustiz",0.00211
"interlocutor",0.00211
"irris",0.00211
"palm",0.00211
"pieg",0.00211
"plac",0.00211
"rispond",0.00211
"rivolg",0.00211
"sensibil",0.00211
"sinistr",0.00211
"spos",0.00211
"svincol",0.00211
"tacc",0.00211
"telef",0.00211
"uscir",0.00211
"telefon",0.0021
"esplic",0.0021
"democrat",0.0021
"diffam",0.0021
"incompetent",0.0021
"discut",0.00209
"acquis",0.00209
"ammort",0.00209
"aspecif",0.00209
"brecc",0.00209
"carneval",0.00209
"condomin",0.00209
"contamin",0.00209
"contradd",0.00209
"edicol",0.00209
"editor",0.00209
"editorial",0.00209
"ermellin",0.00209
"falliment",0.00209
"fattur",0.00209
"feed",0.00209
"filiazion",0.00209
"fiscal",0.00209
"gazzett",0.00209
"granell",0.00209
"handicap",0.00209
"impuls",0.00209
"innov",0.00209
"liev",0.00209
"linkedin",0.00209
"mapp",0.00209
"maricond",0.00209
"monetar",0.00209
"monograf",0.00209
"mutu",0.00209
"panizz",0.00209
"persuad",0.00209
"pilot",0.00209
"rammar",0.00209
"scoss",0.00209
"secc",0.00209
"somal",0.00209
"specializz",0.00209
"staff",0.00209
"sussid",0.00209
"tassazion",0.00209
"tecnol",0.00209
"utet",0.00209
"territor",0.00208
"digital",0.00208
"coinvolt",0.00208
"migrant",0.00208
"antisocial",0.00208
"chios",0.00208
"diffident",0.00208
"dirs",0.00208
"extra",0.00208
"guis",0.00208
"insistent",0.00208
"intervist",0.00208
"iron",0.00208
"lessic",0.00208
"metr",0.00208
"moen",0.00208
"pavlov",0.00208
"portin",0.00208
"sper",0.00208
"eserciz",0.00207
"parit",0.00207
"denigr",0.00207
"protezion",0.00207
"riattiv",0.00207
"scientif",0.00206
"affigg",0.00206
"antic",0.00206
"diminut",0.00206
"fastid",0.00206
"german",0.00206
"israel",0.00206
"reic",0.00206
"storiograf",0.00206
"usciv",0.00206
"agir",0.00206
"semplic",0.00206
"raccolt",0.00205
"superior",0.00205
"rivelin",0.00204
"antropomorf",0.00204
"allogg",0.00204
"mal",0.00204
"assent",0.00204
"tension",0.00203
"impegn",0.00203
"consapevol",0.00202
"cap",0.00202
"afferm",0.00202
"ricerc",0.00201
"fial",0.00201
"telemat",0.00201
"sap",0.002
"numer",0.002
"fras",0.002
"castell",0.002
"privacy",0.00199
"assemble",0.00199
"etni",0.00199
"concentr",0.00199
"affission",0.00198
"antistatar",0.00198
"beller",0.00198
"sovran",0.00198
"impres",0.00198
"implicit",0.00198
"list",0.00198
"statunitens",0.00197
"dipendent",0.00197
"offes",0.00196
"dimension",0.00196
"presunzion",0.00196
"comit",0.00194
"vocazion",0.00194
"automat",0.00194
"padr",0.00194
"sopr",0.00194
"person",0.00193
"italian",0.00192
"invett",0.00192
"aderent",0.00192
"prim",0.00191
"dannos",0.0019
"consens",0.0019
"fattor",0.00189
"essenz",0.00189
"giuoc",0.00189
"rivel",0.00189
"disabilit",0.00189
"dirigent",0.00188
"umil",0.00188
"tac",0.00188
"opportun",0.00187
"istit",0.00187
"segu",0.00187
"cur",0.00187
"priv",0.00187
"rispett",0.00186
"cappitell",0.00186
"coesistent",0.00186
"dispong",0.00186
"extracomunitar",0.00186
"fecebook",0.00186
"marocchin",0.00186
"occhi",0.00186
"percoss",0.00186
"puttan",0.00186
"stronz",0.00186
"strumentalizz",0.00186
"teatral",0.00186
"usura",0.00186
"contratt",0.00186
"popol",0.00186
"immigr",0.00185
"mov",0.00185
"spunt",0.00185
"relazion",0.00185
"esprim",0.00185
"raggiung",0.00185
"memor",0.00184
"connot",0.00184
"convint",0.00184
"terror",0.00184
"fals",0.00184
"intrinsec",0.00184
"episod",0.00184
"men",0.00182
"vide",0.00182
"gestual",0.00181
"tip",0.00181
"stad",0.00181
"forz",0.00181
"convenzion",0.0018
"esistent",0.0018
"eguagl",0.0018
"geograf",0.00179
"sionist",0.00179
"scelt",0.00179
"sent",0.00178
"arti",0.00178
"barist",0.00178
"cattol",0.00178
"chius",0.00178
"dissequestr",0.00178
"dott",0.00178
"etic",0.00178
"fic",0.00178
"inerm",0.00178
"liberal",0.00178
"matrimon",0.00178
"minazion",0.00178
"multirazzial",0.00178
"nefast",0.00178
"potest",0.00178
"prosel",0.00178
"retribu",0.00178
"satan",0.00178
"semplif",0.00178
"sionism",0.00178
"slogans",0.00178
"stirp",0.00178
"inser",0.00178
"vittim",0.00178
"ded",0.00178
"stregu",0.00176
"abbass",0.00176
"amplific",0.00176
"antirelig",0.00176
"aspra",0.00176
"chirurg",0.00176
"dimentic",0.00176
"epistol",0.00176
"equivoc",0.00176
"esond",0.00176
"falc",0.00176
"focalizz",0.00176
"imman",0.00176
"immotiv",0.00176
"implic",0.00176
"indelebil",0.00176
"innalz",0.00176
"invent",0.00176
"israelit",0.00176
"letteratur",0.00176
"maceller",0.00176
"metacultur",0.00176
"propr",0.00176
"prudent",0.00176
"raccord",0.00176
"redim",0.00176
"riproduc",0.00176
"rispos",0.00176
"sacrifical",0.00176
"sagg",0.00176
"scal",0.00176
"semant",0.00176
"supremaz",0.00176
"svil",0.00176
"tranciant",0.00176
"vegetar",0.00176
"vegetarian",0.00176
"virulent",0.00176
"poliz",0.00176
"pian",0.00176
"messagg",0.00176
"continent",0.00176
"gratu",0.00175
"camp",0.00175
"distribu",0.00174
"manc",0.00174
"dibatt",0.00174
"disabil",0.00174
"memorizz",0.00174
"pedofil",0.00174
"vittor",0.00173
"avvis",0.00173
"confront",0.00173
"allarg",0.00173
"giung",0.00173
"notiz",0.00172
"tutel",0.00171
"internazional",0.00171
"pell",0.00171
"perseguit",0.00171
"oppost",0.00171
"mondial",0.0017
"illec",0.0017
"sol",0.0017
"consum",0.0017
"contraddistint",0.0017
"consacr",0.00169
"novit",0.00168
"res",0.00168
"ignot",0.00167
"peculiar",0.00167
"intellettual",0.00167
"mass",0.00167
"spiegazion",0.00167
"camin",0.00166
"compr",0.00166
"inesattezz",0.00166
"inversion",0.00166
"mater",0.00166
"medicin",0.00166
"ritorsion",0.00166
"signorin",0.00166
"tagliol",0.00166
"vecchiai",0.00166
"vuo",0.00166
"uman",0.00166
"interv",0.00166
"riprovevol",0.00166
"sprezzant",0.00166
"appartenent",0.00165
"accompagn",0.00165
"lat",0.00165
"disponibil",0.00164
"falsit",0.00164
"fraudolent",0.00164
"fruizion",0.00164
"letal",0.00164
"pubblicitar",0.00164
"ricezion",0.00164
"disvalor",0.00163
"esteriorizz",0.00163
"incapac",0.00163
"chat",0.00163
"ladr",0.00163
"ostent",0.00163
"famigl",0.00163
"incis",0.00163
"lacun",0.00163
"newsfeed",0.00163
"scarn",0.00163
"sment",0.00162
"mand",0.00162
"luc",0.00162
"trasmod",0.00162
"hom",0.00161
"pun",0.00161
"affiss",0.00161
"minacc",0.0016
"dirett",0.0016
"contrar",0.0016
"vergogn",0.0016
"abus",0.0016
"pericol",0.0016
"elezion",0.00159
"stran",0.00159
"territorial",0.00159
"situazion",0.00159
"mod",0.00159
"madr",0.00159
"verb",0.00159
"alti",0.00158
"spezz",0.00158
"ostinat",0.00158
"trupp",0.00158
"viet",0.00158
"diffamator",0.00158
"ner",0.00158
"uomin",0.00158
"verbal",0.00158
"sostanz",0.00157
"effett",0.00157
"titol",0.00157
"divers",0.00157
"repubbl",0.00157
"ideolog",0.00157
"censur",0.00157
"entramb",0.00156
"accost",0.00156
"raffigur",0.00156
"problemat",0.00156
"fasc",0.00156
"vot",0.00156
"franc",0.00156
"approcc",0.00156
"gangl",0.00156
"polem",0.00156
"sess",0.00155
"adesion",0.00155
"distint",0.00155
"forzatur",0.00155
"comunqu",0.00155
"eccess",0.00154
"stim",0.00154
"fruitor",0.00154
"striscion",0.00154
"disprezz",0.00154
"ottic",0.00154
"europ",0.00153
"riservatezz",0.00153
"destinatar",0.00153
"destin",0.00153
"muov",0.00153
"provenient",0.00153
"doglianz",0.00152
"rivend",0.00152
"caratt",0.00152
"discors",0.00152
"traditor",0.00151
"amic",0.00151
"caten",0.0015
"dett",0.0015
"torn",0.0015
"epigraf",0.0015
"intim",0.0015
"attenzion",0.0015
"emot",0.0015
"reazion",0.0015
"azion",0.0015
"commercial",0.00149
"stud",0.00149
"viz",0.00149
"impost",0.00149
"finanziar",0.00149
"offrir",0.00149
"elev",0.00149
"cors",0.00148
"onest",0.00148
"clim",0.00148
"dispon",0.00148
"autor",0.00148
"chied",0.00148
"nazional",0.00148
"articol",0.00147
"consistent",0.00147
"incontr",0.00147
"disposit",0.00147
"nemic",0.00146
"sdegn",0.00146
"lett",0.00145
"libr",0.00145
"raccogl",0.00144
"mort",0.00144
"proprietar",0.00144
"signor",0.00144
"indipendent",0.00144
"vol",0.00143
"special",0.00143
"cultural",0.00143
"notor",0.00143
"apprezz",0.00141
"razzism",0.0014
"tratt",0.0014
"utilizz",0.0014
"entit",0.0014
"abbatt",0.0014
"celebr",0.0014
"conoscess",0.0014
"cristallin",0.0014
"didatt",0.0014
"foll",0.0014
"narrazion",0.0014
"oppositor",0.0014
"orror",0.0014
"prefer",0.0014
"prigion",0.0014
"promulg",0.0014
"tragic",0.0014
"sens",0.00139
"orient",0.00139
"antifasc",0.00139
"corpor",0.00139
"prid",0.00139
"scelb",0.00139
"sorvegl",0.00139
"immagin",0.00139
"radiofon",0.00138
"differenz",0.00138
"strumental",0.00138
"tiratur",0.00138
"progett",0.00138
"ten",0.00138
"anniversar",0.00138
"normal",0.00138
"band",0.00138
"togl",0.00138
"bianc",0.00137
"colleg",0.00137
"pag",0.00137
"attual",0.00137
"invit",0.00137
"cronac",0.00137
"delinquent",0.00137
"rappresent",0.00136
"caratterist",0.00136
"soc",0.00136
"benefic",0.00136
"prudenz",0.00136
"esibizion",0.00136
"attacc",0.00136
"cuor",0.00136
"accomun",0.00135
"liber",0.00135
"poss",0.00135
"color",0.00135
"ritual",0.00135
"compagin",0.00135
"questur",0.00135
"occup",0.00135
"ritorn",0.00135
"conflu",0.00134
"conserv",0.00134
"ricord",0.00134
"comunic",0.00134
"costrett",0.00134
"mond",0.00134
"tipic",0.00134
"minimizz",0.00133
"assenz",0.00133
"trasform",0.00133
"esponenzial",0.00133
"oltrepass",0.00133
"cant",0.00132
"div",0.00132
"dot",0.00132
"dat",0.00132
"tes",0.00132
"pension",0.00132
"tass",0.00132
"vitt",0.00132
"ingiust",0.00132
"innegg",0.00131
"soggett",0.00131
"abbi",0.00131
"fiduc",0.0013
"insofferent",0.0013
"elimin",0.0013
"incident",0.0013
"raccomand",0.0013
"aggred",0.0013
"esponent",0.00129
"copp",0.00129
"darv",0.00129
"esperient",0.00129
"min",0.00129
"immission",0.00129
"offrend",0.00129
"singol",0.00129
"nazionalsocial",0.00129
"sub",0.00129
"insegn",0.00128
"eur",0.00128
"personal",0.00128
"destr",0.00128
"regol",0.00127
"religion",0.00127
"union",0.00127
"mezz",0.00127
"dignit",0.00127
"import",0.00126
"tent",0.00126
"valor",0.00126
"insult",0.00126
"lettur",0.00126
"ultim",0.00125
"usual",0.00125
"pervicac",0.00125
"marc",0.00125
"alle",0.00125
"istitu",0.00125
"svantagg",0.00124
"degrad",0.00124
"lager",0.00124
"riabilit",0.00124
"studios",0.00124
"eccezion",0.00124
"leader",0.00124
"consapevolezz",0.00124
"schem",0.00124
"nid",0.00124
"realt",0.00124
"otten",0.00124
"domicil",0.00123
"lim",0.00123
"sistem",0.00123
"rapport",0.00123
"vit",0.00123
"promozion",0.00123
"lasc",0.00122
"compromett",0.00122
"fot",0.00122
"educ",0.00121
"televis",0.00121
"membr",0.00121
"forn",0.00121
"inter",0.00121
"compression",0.00121
"fatt",0.00121
"alve",0.00121
"persecu",0.00121
"modific",0.0012
"twitter",0.0012
"esercit",0.0012
"pronunc",0.0012
"sebben",0.0012
"cappucc",0.0012
"compiac",0.0012
"compromettent",0.0012
"genuin",0.0012
"gravit",0.0012
"inculc",0.0012
"intercett",0.0012
"irrision",0.0012
"madornal",0.0012
"obbiett",0.0012
"onta",0.0012
"relazional",0.0012
"ripens",0.0012
"scopert",0.0012
"sho",0.0012
"telefonin",0.0012
"viv",0.0012
"convert",0.0012
"antirazz",0.0012
"front",0.0012
"scop",0.0012
"inammiss",0.00119
"figl",0.00119
"termin",0.00119
"ricev",0.00119
"antipat",0.00119
"cre",0.00118
"giudaism",0.00118
"fisic",0.00118
"plural",0.00118
"pur",0.00118
"strett",0.00117
"elettoral",0.00117
"frattemp",0.00117
"rivolt",0.00117
"eserc",0.00117
"cos",0.00117
"addirittur",0.00117
"pied",0.00117
"sovrappon",0.00117
"astratt",0.00117
"verit",0.00117
"caratter",0.00117
"verosimil",0.00116
"econom",0.00116
"avant",0.00116
"sen",0.00116
"dov",0.00116
"trasmess",0.00116
"apolog",0.00116
"meritevol",0.00116
"caratterizz",0.00116
"competizion",0.00115
"gen",0.00115
"valorizz",0.00115
"carenz",0.00115
"lament",0.00115
"mess",0.00115
"solid",0.00115
"sostanzial",0.00115
"andar",0.00115
"ispir",0.00115
"sfer",0.00115
"pericolos",0.00115
"espress",0.00115
"attribu",0.00114
"nazion",0.00114
"stamp",0.00114
"redazion",0.00114
"vien",0.00114
"entrat",0.00114
"obblig",0.00114
"epitet",0.00114
"stimol",0.00114
"apert",0.00113
"ader",0.00113
"vist",0.00113
"rabb",0.00113
"provoc",0.00113
"universal",0.00112
"attegg",0.00112
"omicid",0.00112
"negat",0.00112
"regim",0.00112
"indirett",0.00112
"pien",0.00112
"trasmett",0.00112
"line",0.00112
"protett",0.00112
"tentat",0.00111
"influenz",0.00111
"reag",0.00111
"scort",0.00111
"moss",0.00111
"retor",0.00111
"generalizz",0.00111
"comp",0.00111
"ampi",0.00111
"preferent",0.00111
"riunion",0.0011
"originar",0.0011
"offens",0.0011
"ordin",0.0011
"nom",0.00109
"test",0.00109
"access",0.00109
"god",0.00108
"descriv",0.00108
"coscienz",0.00108
"affett",0.00108
"frequent",0.00108
"origin",0.00108
"sping",0.00108
"pacif",0.00108
"vast",0.00107
"visibil",0.00107
"neg",0.00107
"onde",0.00107
"grupp",0.00107
"mancin",0.00107
"iniz",0.00106
"linguagg",0.00106
"rimbors",0.00106
"fornitur",0.00106
"malatt",0.00106
"anim",0.00106
"giovann",0.00106
"invasion",0.00106
"principal",0.00106
"psicolog",0.00106
"part",0.00106
"avvers",0.00106
"ton",0.00106
"evoc",0.00106
"lit",0.00106
"xenofob",0.00105
"volont",0.00105
"pat",0.00105
"miglior",0.00105
"occident",0.00105
"scontr",0.00105
"avanz",0.00105
"conflitt",0.00105
"intermediar",0.00104
"patr",0.00104
"poch",0.00104
"simbolog",0.00104
"potenzial",0.00104
"acqua",0.00104
"altissim",0.00104
"ammant",0.00104
"apparteng",0.00104
"ardu",0.00104
"arred",0.00104
"assembl",0.00104
"atroc",0.00104
"audienc",0.00104
"austr",0.00104
"autodetermin",0.00104
"bas",0.00104
"contorn",0.00104
"corrispondent",0.00104
"crescent",0.00104
"crucial",0.00104
"deform",0.00104
"demagog",0.00104
"discendent",0.00104
"disonorevol",0.00104
"disvalorial",0.00104
"dogmat",0.00104
"eccentr",0.00104
"epilog",0.00104
"equazion",0.00104
"esord",0.00104
"esplet",0.00104
"fancazz",0.00104
"festival",0.00104
"filon",0.00104
"foment",0.00104
"frequenz",0.00104
"hann",0.00104
"inclusion",0.00104
"indegn",0.00104
"inoffens",0.00104
"irrespons",0.00104
"lapidar",0.00104
"latitudin",0.00104
"leal",0.00104
"livor",0.00104
"mignol",0.00104
"musulman",0.00104
"oli",0.00104
"omogene",0.00104
"onda",0.00104
"pors",0.00104
"portafogl",0.00104
"predic",0.00104
"predomin",0.00104
"preval",0.00104
"princip",0.00104
"pungent",0.00104
"ripos",0.00104
"ripugn",0.00104
"scassin",0.00104
"scherzos",0.00104
"sfiduc",0.00104
"sincer",0.00104
"sipar",0.00104
"sociolog",0.00104
"soprammobil",0.00104
"standardizz",0.00104
"svalut",0.00104
"timor",0.00104
"totalizz",0.00104
"trasparent",0.00104
"ugual",0.00104
"vesp",0.00104
"virtù",0.00104
"volg",0.00104
"zapp",0.00104
"moment",0.00104
"emergent",0.00104
"meccan",0.00104
"ricorrent",0.00104
"ambient",0.00104
"attitudin",0.00103
"urgent",0.00103
"parol",0.00103
"cart",0.00103
"ferm",0.00103
"convinc",0.00103
"ripet",0.00103
"illog",0.00103
"aberr",0.00103
"adatt",0.00103
"affacc",0.00103
"aline",0.00103
"aman",0.00103
"amat",0.00103
"anub",0.00103
"armen",0.00103
"arrost",0.00103
"autodefin",0.00103
"autostradal",0.00103
"avven",0.00103
"balen",0.00103
"bellic",0.00103
"boicottagg",0.00103
"bont",0.00103
"botton",0.00103
"caciott",0.00103
"cominc",0.00103
"culatell",0.00103
"decess",0.00103
"egiz",0.00103
"equo",0.00103
"etichett",0.00103
"falsif",0.00103
"favol",0.00103
"gatt",0.00103
"icast",0.00103
"impietos",0.00103
"impostur",0.00103
"incomprensibil",0.00103
"inesatt",0.00103
"insinu",0.00103
"interrel",0.00103
"invenzion",0.00103
"lanc",0.00103
"madagasc",0.00103
"mangiafuoc",0.00103
"mastr",0.00103
"nas",0.00103
"occult",0.00103
"ottom",0.00103
"paralum",0.00103
"pedissequ",0.00103
"pet",0.00103
"poder",0.00103
"possess",0.00103
"primogen",0.00103
"prot",0.00103
"razial",0.00103
"revisionist",0.00103
"ripr",0.00103
"saponett",0.00103
"seren",0.00103
"soppress",0.00103
"sord",0.00103
"strag",0.00103
"tortur",0.00103
"turb",0.00103
"ventr",0.00103
"volp",0.00103
"colt",0.00103
"perd",0.00103
"tagl",0.00103
"comprend",0.00102
"delic",0.00102
"tracc",0.00102
"veron",0.00102
"prestig",0.00102
"stor",0.00102
"bisogn",0.00102
"tem",0.00101
"sicur",0.00101
"spieg",0.00101
"pregiudizievol",0.00101
"offert",0.00101
"pass",0.001
"sfoc",0.001
"propriet",0.001
"romp",0.001
"cittadin",0.001
"corr",0.00099
"allocton",0.00099
"antidiscriminator",0.00099
"duol",0.00099
"foron",0.00099
"frustr",0.00099
"inibitor",0.00099
"irregol",0.00099
"irregolar",0.00099
"portatric",0.00099
"rinunc",0.00099
"titolar",0.00099
"vicol",0.00099
"vocabol",0.00099
"integr",0.00099
"figur",0.00099
"qualit",0.00099
"arian",0.00099
"risent",0.00099
"determin",0.00098
"les",0.00098
"organ",0.00098
"central",0.00098
"liceit",0.00098
"ripropon",0.00098
"viss",0.00098
"criminal",0.00098
"incoraggin",0.00098
"suscett",0.00098
"indirizz",0.00098
"trad",0.00098
"militar",0.00098
"diffond",0.00098
"attravers",0.00098
"orgogl",0.00098
"possied",0.00098
"rison",0.00098
"sgomber",0.00098
"oper",0.00098
"barbar",0.00097
"student",0.00097
"disciplin",0.00097
"rubric",0.00097
"disporr",0.00097
"minor",0.00097
"offend",0.00097
"dettagl",0.00097
"malevol",0.00097
"scud",0.00097
"youtub",0.00097
"divulg",0.00096
"carl",0.00096
"irrident",0.00096
"pens",0.00096
"tradizion",0.00096
"intimidator",0.00096
"rinven",0.00096
"esser",0.00096
"riman",0.00096
"ospit",0.00095
"adun",0.00095
"collett",0.00095
"intenzion",0.00095
"coordin",0.00095
"dirig",0.00094
"narrat",0.00094
"ved",0.00094
"insist",0.00094
"lavor",0.00094
"vision",0.00094
"repress",0.00094
"descritt",0.00093
"statist",0.00093
"domin",0.00093
"delittu",0.00093
"modif",0.00093
"ver",0.00092
"dubit",0.00092
"different",0.00092
"form",0.00092
"serv",0.00092
"per",0.00092
"salvaguard",0.00092
"par",0.00092
"nasc",0.00091
"compars",0.00091
"unit",0.00091
"imped",0.00091
"radic",0.00091
"risc",0.00091
"armat",0.00091
"possibil",0.00091
"spint",0.00091
"profond",0.00091
"confin",0.0009
"vest",0.0009
"egid",0.0009
"evit",0.00089
"grav",0.00089
"problem",0.00089
"contrast",0.00089
"adoper",0.00089
"affond",0.00089
"alien",0.00089
"anonim",0.00089
"ari",0.00089
"arma",0.00089
"aut",0.00089
"battimental",0.00089
"battist",0.00089
"benef",0.00089
"blic",0.00089
"bran",0.00089
"brutal",0.00089
"canestrin",0.00089
"cess",0.00089
"chiarazion",0.00089
"circu",0.00089
"clus",0.00089
"confond",0.00089
"decad",0.00089
"demolitor",0.00089
"dic",0.00089
"discrimator",0.00089
"disintegr",0.00089
"disonest",0.00089
"dogm",0.00089
"epocal",0.00089
"equival",0.00089
"ereditar",0.00089
"estorsion",0.00089
"eterogene",0.00089
"eugen",0.00089
"eugenet",0.00089
"extarcomunitar",0.00089
"gand",0.00089
"gass",0.00089
"gentil",0.00089
"gios",0.00089
"giudaic",0.00089
"incitamen",0.00089
"indifferen",0.00089
"infiltr",0.00089
"intelligent",0.00089
"interrazzial",0.00089
"irriguard",0.00089
"irruent",0.00089
"leadership",0.00089
"levabil",0.00089
"lont",0.00089
"lontan",0.00089
"marxism",0.00089
"marxist",0.00089
"massoner",0.00089
"mat",0.00089
"mental",0.00089
"merit",0.00089
"met",0.00089
"minatric",0.00089
"mit",0.00089
"monstruos",0.00089
"mostruosamen",0.00089
"nav",0.00089
"oce",0.00089
"orga",0.00089
"orizzont",0.00089
"padron",0.00089
"patriott",0.00089
"plutocr",0.00089
"pol",0.00089
"princ",0.00089
"profilatt",0.00089
"propagan",0.00089
"puliz",0.00089
"raffin",0.00089
"ress",0.00089
"rimpiazz",0.00089
"rup",0.00089
"scatt",0.00089
"schiavitù",0.00089
"sfianc",0.00089
"sibil",0.00089
"sider",0.00089
"sifilid",0.00089
"sign",0.00089
"sim",0.00089
"soffoc",0.00089
"spont",0.00089
"stitu",0.00089
"strad",0.00089
"strat",0.00089
"strenu",0.00089
"sult",0.00089
"svel",0.00089
"tat",0.00089
"tement",0.00089
"tornaten",0.00089
"vangel",0.00089
"distacc",0.00089
"tenor",0.00089
"disvel",0.00089
"individu",0.00088
"milit",0.00088
"distinzion",0.00088
"quadr",0.00088
"ruol",0.00088
"sporc",0.00088
"affront",0.00088
"temp",0.00087
"rest",0.00087
"contr",0.00087
"aren",0.00087
"augell",0.00087
"dilettantist",0.00087
"sport",0.00087
"violent",0.00087
"sottovalut",0.00086
"accogl",0.00086
"combatt",0.00086
"natur",0.00086
"scuol",0.00086
"ripetizion",0.00086
"equit",0.00086
"privileg",0.00086
"simil",0.00085
"vogl",0.00085
"fin",0.00085
"biolog",0.00085
"parl",0.00085
"chiam",0.00085
"conoscent",0.00085
"prevalent",0.00085
"dottor",0.00084
"costant",0.00084
"opinion",0.00084
"super",0.00084
"fogl",0.00084
"piant",0.00084
"solc",0.00084
"terr",0.00084
"univers",0.00084
"copyright",0.00084
"ascendent",0.00084
"sostegn",0.00083
"accamp",0.00083
"adombr",0.00083
"altezz",0.00083
"anomal",0.00083
"antidiscrimin",0.00083
"apolid",0.00083
"assistenzial",0.00083
"attric",0.00083
"calor",0.00083
"calzant",0.00083
"candid",0.00083
"candidatur",0.00083
"carrier",0.00083
"contrappon",0.00083
"copr",0.00083
"corp",0.00083
"cristallizzat",0.00083
"cruent",0.00083
"delinquenzial",0.00083
"deviant",0.00083
"discriminin",0.00083
"elemosin",0.00083
"emergess",0.00083
"esche",0.00083
"espansion",0.00083
"espong",0.00083
"estrinsec",0.00083
"fecc",0.00083
"feroc",0.00083
"fest",0.00083
"fianc",0.00083
"fuorviant",0.00083
"gom",0.00083
"guadagn",0.00083
"inaccess",0.00083
"incapp",0.00083
"incaric",0.00083
"incontroll",0.00083
"inopportun",0.00083
"licenz",0.00083
"magliett",0.00083
"malfattor",0.00083
"mansion",0.00083
"meritin",0.00083
"monc",0.00083
"mozz",0.00083
"nomin",0.00083
"offendicul",0.00083
"parass",0.00083
"penzol",0.00083
"piranh",0.00083
"pols",0.00083
"produzion",0.00083
"progression",0.00083
"rip",0.00083
"ristrett",0.00083
"scemp",0.00083
"scherm",0.00083
"schif",0.00083
"sconcert",0.00083
"sconclusion",0.00083
"scrittur",0.00083
"semafor",0.00083
"sganc",0.00083
"simul",0.00083
"sintom",0.00083
"sorg",0.00083
"sottigliezz",0.00083
"spaziant",0.00083
"speranz",0.00083
"spolp",0.00083
"stradal",0.00083
"stridess",0.00083
"svantaggin",0.00083
"taglion",0.00083
"teams",0.00083
"tirocin",0.00083
"trivial",0.00083
"truculent",0.00083
"vant",0.00083
"vial",0.00083
"videoconferent",0.00083
"esecu",0.00083
"menzogn",0.00083
"esplicit",0.00083
"disordin",0.00082
"voc",0.00082
"logic",0.00082
"ingress",0.00082
"pac",0.00082
"andat",0.00082
"appell",0.00082
"discred",0.00082
"interior",0.00082
"personagg",0.00082
"verid",0.00082
"aggir",0.00082
"aliment",0.00082
"allin",0.00082
"appropr",0.00082
"beness",0.00082
"cav",0.00082
"cesur",0.00082
"chi",0.00082
"convivent",0.00082
"cresc",0.00082
"dannegg",0.00082
"denar",0.00082
"deplorevol",0.00082
"desider",0.00082
"dicer",0.00082
"differ",0.00082
"domest",0.00082
"equilibr",0.00082
"erog",0.00082
"farmaceut",0.00082
"fornitr",0.00082
"fors",0.00082
"genic",0.00082
"giornalist",0.00082
"indifferent",0.00082
"indiscrimin",0.00082
"inforn",0.00082
"inibizion",0.00082
"iniezion",0.00082
"interag",0.00082
"irrevers",0.00082
"lubric",0.00082
"mail",0.00082
"malgrad",0.00082
"merc",0.00082
"miracol",0.00082
"oral",0.00082
"prezz",0.00082
"probabil",0.00082
"pubblicist",0.00082
"recalc",0.00082
"riprend",0.00082
"ritard",0.00082
"scind",0.00082
"scrivent",0.00082
"sfrutt",0.00082
"sopprim",0.00082
"spettacol",0.00082
"svolg",0.00082
"terap",0.00082
"turbin",0.00082
"uccis",0.00082
"unicef",0.00082
"usan",0.00082
"utenz",0.00082
"vagh",0.00082
"vedr",0.00082
"posizion",0.00082
"ced",0.00082
"error",0.00082
"volgar",0.00082
"distrugg",0.00081
"tecnic",0.00081
"chiar",0.00081
"volt",0.00081
"usat",0.0008
"salv",0.0008
"studentess",0.0008
"capital",0.00079
"iscritt",0.00079
"uguagl",0.00079
"professional",0.00079
"soggiorn",0.00079
"log",0.00079
"novell",0.00079
"ingannevol",0.00079
"virus",0.00079
"giornal",0.00078
"sopravviss",0.00078
"fenomen",0.00078
"campagn",0.00078
"util",0.00077
"inaccett",0.00077
"sed",0.00077
"commerc",0.00077
"govern",0.00077
"imper",0.00077
"nascond",0.00077
"dubb",0.00077
"esul",0.00077
"gent",0.00077
"resist",0.00077
"sfugg",0.00077
"colp",0.00076
"epoc",0.00076
"estrane",0.00076
"med",0.00076
"indesider",0.00076
"matric",0.00075
"estrem",0.00075
"vic",0.00075
"allontan",0.00075
"trov",0.00075
"emblem",0.00075
"continu",0.00074
"gioc",0.00074
"bell",0.00074
"cazz",0.00074
"temat",0.00074
"pres",0.00074
"rispost",0.00074
"ident",0.00074
"lingu",0.00074
"aiut",0.00074
"mir",0.00074
"ripristin",0.00074
"fantas",0.00074
"tranquill",0.00074
"facil",0.00073
"pot",0.00073
"material",0.00073
"centr",0.00073
"fortement",0.00073
"global",0.00073
"disconosc",0.00072
"ser",0.00072
"dopp",0.00072
"toller",0.00072
"realment",0.00072
"regin",0.00072
"trucc",0.00072
"unific",0.00072
"limited",0.00072
"attor",0.00072
"nat",0.00072
"rang",0.00071
"separ",0.00071
"ven",0.0007
"strument",0.0007
"riport",0.0007
"genet",0.0007
"difett",0.0007
"arriv",0.00069
"balcon",0.00069
"batt",0.00069
"casapound",0.00069
"colosse",0.00069
"conten",0.00069
"creator",0.00069
"diram",0.00069
"fer",0.00069
"ideal",0.00069
"invasor",0.00069
"littor",0.00069
"mission",0.00069
"nucle",0.00069
"omagg",0.00069
"palazz",0.00069
"patriot",0.00069
"prolifer",0.00069
"pront",0.00069
"protagon",0.00069
"rapid",0.00069
"ricettacol",0.00069
"rivolu",0.00069
"spicc",0.00069
"studentesc",0.00069
"stuprator",0.00069
"sventol",0.00069
"verones",0.00069
"vignett",0.00069
"cerimon",0.00069
"ross",0.00069
"schier",0.00069
"registr",0.00069
"aggress",0.00069
"belg",0.00069
"protegg",0.00069
"capac",0.00069
"cultur",0.00068
"concettual",0.00068
"misericord",0.00068
"qualif",0.00068
"riprodott",0.00068
"stazion",0.00068
"suggest",0.00068
"attent",0.00068
"promuov",0.00068
"segnal",0.00068
"port",0.00068
"accant",0.00068
"col",0.00068
"convenient",0.00068
"decid",0.00068
"modell",0.00068
"mut",0.00068
"scienz",0.00068
"incert",0.00068
"settor",0.00068
"sindac",0.00067
"grand",0.00067
"equivalent",0.00067
"tradizional",0.00067
"espulsion",0.00066
"mang",0.00066
"molt",0.00066
"paur",0.00066
"usar",0.00066
"vuol",0.00066
"diffus",0.00066
"gravement",0.00066
"moral",0.00065
"affar",0.00065
"combin",0.00065
"inappropr",0.00065
"riprodu",0.00065
"stat",0.00065
"finanz",0.00065
"manier",0.00065
"consigl",0.00065
"giov",0.00064
"comunitar",0.00064
"caric",0.00064
"illegal",0.00063
"cerc",0.00063
"progress",0.00063
"fort",0.00062
"inclus",0.00062
"rimast",0.00062
"individual",0.00061
"solidariet",0.00061
"lettor",0.00061
"migrator",0.00061
"mun",0.00061
"regn",0.00061
"paes",0.00061
"lott",0.0006
"accoglient",0.0006
"incoragg",0.0006
"democraz",0.0006
"segn",0.00059
"cred",0.00058
"creazion",0.00058
"oscur",0.00058
"distrutt",0.00057
"tard",0.00057
"vers",0.00057
"mancanz",0.00057
"grossolan",0.00056
"ignor",0.00056
"vend",0.00056
"reprim",0.00056
"convinzion",0.00055
"fiss",0.00055
"gener",0.00055
"debol",0.00055
"debolezz",0.00055
"frang",0.00055
"giustif",0.00055
"irresponsabil",0.00055
"letterar",0.00055
"lung",0.00055
"preoccup",0.00055
"pretest",0.00055
"ridicolizz",0.00055
"tasc",0.00055
"veicol",0.00053
"dover",0.00053
"agevol",0.00053
"esper",0.00053
"contrappost",0.00053
"fann",0.00053
"trattien",0.00053
"vecc",0.00053
"dator",0.00053
"discrezional",0.00053
"distr",0.00053
"promoss",0.00053
"soccombent",0.00053
"voler",0.00053
"bruc",0.00052
"bust",0.00052
"corte",0.00052
"gel",0.00052
"viral",0.00052
"coesist",0.00052
"esistenzial",0.00052
"inefficac",0.00052
"distruzion",0.00051
"eccezional",0.00051
"letteral",0.00051
"sold",0.0005
"vantagg",0.0005
"accadem",0.0005
"allegger",0.0005
"appartien",0.0005
"asociat",0.0005
"attrib",0.0005
"autoct",0.0005
"caucas",0.0005
"ciel",0.0005
"compromission",0.0005
"conven",0.0005
"cost",0.0005
"dicitur",0.0005
"difform",0.0005
"disaccord",0.0005
"distanz",0.0005
"distort",0.0005
"dolg",0.0005
"efficient",0.0005
"elettor",0.0005
"enfatizz",0.0005
"entran",0.0005
"frontier",0.0005
"gravid",0.0005
"guaglianon",0.0005
"iattanz",0.0005
"imprecision",0.0005
"incertezz",0.0005
"indoeurope",0.0005
"intrecc",0.0005
"irripet",0.0005
"lussemburg",0.0005
"malevolent",0.0005
"minim",0.0005
"monet",0.0005
"notoriet",0.0005
"ossequ",0.0005
"piccol",0.0005
"psicofis",0.0005
"risors",0.0005
"sacrif",0.0005
"sald",0.0005
"sever",0.0005
"sforn",0.0005
"temerar",0.0005
"terminolog",0.0005
"usurp",0.0005
"battagl",0.00049
"liberticid",0.00049
"maf",0.00049
"nazism",0.00049
"punt",0.00049
"sangu",0.00049
"strateg",0.00049
"chiarezz",0.00047
"cooper",0.00047
"incid",0.00047
"intimid",0.00047
"perifer",0.00047
"dottrin",0.00047
"aggreg",0.00047
"cel",0.00047
"giovanil",0.00047
"inevit",0.00047
"letter",0.00047
"pers",0.00046
"avvert",0.00046
"dedic",0.00046
"fornitor",0.00046
"muor",0.00046
"uccid",0.00046
"trasfer",0.00046
"chiusur",0.00045
"riserv",0.00044
"abit",0.00042
"esercent",0.0004
"compar",0.00039
"aggett",0.00038
"abbandon",0.00035
"abil",0.00035
"affil",0.00035
"agisc",0.00035
"aids",0.00035
"allatt",0.00035
"allor",0.00035
"angol",0.00035
"anpi",0.00035
"antif",0.00035
"appes",0.00035
"appiatt",0.00035
"apprendist",0.00035
"arco",0.00035
"armadiett",0.00035
"assalt",0.00035
"bar",0.00035
"baseball",0.00035
"burocrat",0.00035
"business",0.00035
"calpest",0.00035
"camic",0.00035
"camicett",0.00035
"caos",0.00035
"cast",0.00035
"celtic",0.00035
"ciascun",0.00035
"circond",0.00035
"collatin",0.00035
"coloss",0.00035
"comiz",0.00035
"comportamental",0.00035
"comunity",0.00035
"contatt",0.00035
"copios",0.00035
"coragg",0.00035
"costruzion",0.00035
"croc",0.00035
"dar",0.00035
"dasp",0.00035
"delf",0.00035
"descrizion",0.00035
"devianz",0.00035
"digos",0.00035
"diligent",0.00035
"dipend",0.00035
"diping",0.00035
"dipint",0.00035
"disag",0.00035
"disatt",0.00035
"disgreg",0.00035
"disoccup",0.00035
"dispens",0.00035
"disumanizz",0.00035
"divin",0.00035
"drammat",0.00035
"drapp",0.00035
"esalt",0.00035
"esplos",0.00035
"estens",0.00035
"evol",0.00035
"evviv",0.00035
"extraeurope",0.00035
"fanpag",0.00035
"far",0.00035
"fianchegg",0.00035
"fint",0.00035
"flottigl",0.00035
"frances",0.00035
"friger",0.00035
"funeral",0.00035
"fuorv",0.00035
"fur",0.00035
"gioventù",0.00035
"googl",0.00035
"grafic",0.00035
"grid",0.00035
"guardian",0.00035
"guerrier",0.00035
"impatt",0.00035
"incar",0.00035
"incitin",0.00035
"indietr",0.00035
"ingrass",0.00035
"innesc",0.00035
"inquin",0.00035
"inscen",0.00035
"insegu",0.00035
"instagram",0.00035
"inziat",0.00035
"irrepar",0.00035
"iscriv",0.00035
"islamizz",0.00035
"latent",0.00035
"lezion",0.00035
"lgbt",0.00035
"lice",0.00035
"lod",0.00035
"lucent",0.00035
"manifestifasc",0.00035
"manipol",0.00035
"mazz",0.00035
"megl",0.00035
"microsoft",0.00035
"mist",0.00035
"mister",0.00035
"mogl",0.00035
"mor",0.00035
"mortif",0.00035
"narr",0.00035
"nascost",0.00035
"nazifasc",0.00035
"neofasc",0.00035
"nigerian",0.00035
"nostalg",0.00035
"nuoc",0.00035
"offlin",0.00035
"omofob",0.00035
"orecc",0.00035
"original",0.00035
"ottim",0.00035
"panin",0.00035
"partig",0.00035
"partigian",0.00035
"peggior",0.00035
"pensator",0.00035
"pervers",0.00035
"perversion",0.00035
"piacenz",0.00035
"pistol",0.00035
"plate",0.00035
"plexiglass",0.00035
"politt",0.00035
"pozz",0.00035
"produttor",0.00035
"promett",0.00035
"prontezz",0.00035
"prosper",0.00035
"prostitu",0.00035
"provider",0.00035
"quart",0.00035
"quartier",0.00035
"quattordicenn",0.00035
"ragazz",0.00035
"ras",0.00035
"repression",0.00035
"rett",0.00035
"riadatt",0.00035
"ricchezz",0.00035
"rifior",0.00035
"rilav",0.00035
"rimpatr",0.00035
"risalt",0.00035
"riss",0.00035
"riun",0.00035
"rivoluzionar",0.00035
"routin",0.00035
"sacr",0.00035
"sagom",0.00035
"salott",0.00035
"salt",0.00035
"sconvenient",0.00035
"scopp",0.00035
"scorrett",0.00035
"scrittor",0.00035
"segreg",0.00035
"sfid",0.00035
"slogan",0.00035
"snapchat",0.00035
"sopravviv",0.00035
"sorell",0.00035
"spacc",0.00035
"spall",0.00035
"spir",0.00035
"spogl",0.00035
"strapp",0.00035
"straz",0.00035
"string",0.00035
"succed",0.00035
"svastic",0.00035
"team",0.00035
"teatr",0.00035
"teatrin",0.00035
"tess",0.00035
"tesser",0.00035
"tirann",0.00035
"tocc",0.00035
"traffic",0.00035
"train",0.00035
"transnazional",0.00035
"trascur",0.00035
"tregu",0.00035
"tricolor",0.00035
"ultras",0.00035
"usur",0.00035
"veloc",0.00035
"ventenn",0.00035
"vilment",0.00035
"vint",0.00035
"vivailduc",0.00035
"webed",0.00035
"antisindacal",0.00033
"contraddistingu",0.00033
"fluss",0.00033
"piazz",0.00033
"senz",0.00033
"vulner",0.00033
"andre",0.00017
"apologiafasc",0.00017
"blitz",0.00017
"campirom",0.00017
"doman",0.00017
"genitorial",0.00017
"primop",0.00017
"spar",0.00017